{
	"info": {
		"_postman_id": "9f93fbc0-8dea-4346-b4b4-c592366eebcc",
		"name": "Serviplus",
		"schema": "https://schema.getpostman.com/json/collection/v2.1.0/collection.json",
		"_exporter_id": "14942290"
	},
	"item": [
		{
			"name": "User",
			"item": [
				{
					"name": "Save User",
					"request": {
						"method": "POST",
						"header": [
							{
								"key": "Authorization",
								"value": "Bearer eyJhbGciOiJIUzI1NiJ9.QWRtaW4.xeTv1NXwSFFah0gkcTZM1-pA5P7rpxB1jAnGRl8Dsgs",
								"type": "text"
							}
						],
						"body": {
							"mode": "raw",
							"raw": "{\r\n    \"mail\": \"backend@gmail.com\",\r\n    \"firstName\": \"Prueba\",\r\n    \"lastName\": \"Backend\",\r\n    \"rol\": \"Usuario\",\r\n    \"password\": \"password_prueba\" \r\n}",
							"options": {
								"raw": {
									"language": "json"
								}
							}
						},
						"url": {
							"raw": "localhost:5000\\user\\save",
							"host": [
								"localhost"
							],
							"port": "5000",
							"path": [
								"user",
								"save"
							]
						}
					},
					"response": []
				},
				{
					"name": "Find User Id",
					"request": {
						"method": "GET",
						"header": [],
						"url": {
							"raw": "localhost:5000\\user\\636d0d157ff8e29a0e31763e",
							"host": [
								"localhost"
							],
							"port": "5000",
							"path": [
								"user",
								"636d0d157ff8e29a0e31763e"
							]
						}
					},
					"response": []
				},
				{
					"name": "List Users",
					"request": {
						"method": "GET",
						"header": [],
						"url": {
							"raw": "localhost:5000\\user\\list",
							"host": [
								"localhost"
							],
							"port": "5000",
							"path": [
								"user",
								"list"
							]
						}
					},
					"response": []
				},
				{
					"name": "Update User",
					"request": {
						"method": "PUT",
						"header": [
							{
								"key": "Authorization",
								"value": "Bearer eyJhbGciOiJIUzI1NiJ9.QWRtaW4.xeTv1NXwSFFah0gkcTZM1-pA5P7rpxB1jAnGRl8Dsgs",
								"type": "text"
							}
						],
						"body": {
							"mode": "raw",
							"raw": "{\r\n    \"firstName\": \"Actualizaciòn\",\r\n    \"lastName\": \"Backend\"    \r\n}",
							"options": {
								"raw": {
									"language": "json"
								}
							}
						},
						"url": {
							"raw": "localhost:5000\\user\\636d0d157ff8e29a0e31763e",
							"host": [
								"localhost"
							],
							"port": "5000",
							"path": [
								"user",
								"636d0d157ff8e29a0e31763e"
							]
						}
					},
					"response": []
				},
				{
					"name": "Delete User",
					"request": {
						"method": "DELETE",
						"header": [
							{
								"key": "Authorization",
								"value": "Bearer eyJhbGciOiJIUzI1NiJ9.QWRtaW4.xeTv1NXwSFFah0gkcTZM1-pA5P7rpxB1jAnGRl8Dsgs",
								"type": "text"
							}
						],
						"url": {
							"raw": "localhost:5000\\user\\636d0d157ff8e29a0e31763e",
							"host": [
								"localhost"
							],
							"port": "5000",
							"path": [
								"user",
								"636d0d157ff8e29a0e31763e"
							]
						}
					},
					"response": []
				}
			]
		},
		{
			"name": "Tickets",
			"item": [
				{
					"name": "Save Tikect",
					"request": {
						"method": "POST",
						"header": [],
						"body": {
							"mode": "raw",
							"raw": "{\r\n    \"ticketNumber\": \"1\",\r\n    \"mail\": \"nelsong.salazar@gmail.com\",\r\n    \"titule\": \"Error en la App SAP\",\r\n    \"category\": \"Core\",\r\n    \"status\": \"Open\",\r\n    \"replys\":  [\r\n                {\r\n                    \"mail\": \"nelsong.salazar@gmail.com\",\r\n                    \"review\": \"La app no esta disponible\"\r\n                }\r\n              ]\r\n}",
							"options": {
								"raw": {
									"language": "json"
								}
							}
						},
						"url": {
							"raw": "localhost:5000\\ticket\\save",
							"host": [
								"localhost"
							],
							"port": "5000",
							"path": [
								"ticket",
								"save"
							]
						}
					},
					"response": []
				},
				{
					"name": "List Tickets",
					"request": {
						"method": "GET",
						"header": [],
						"url": {
							"raw": "localhost:5000\\ticket\\list\\Open",
							"host": [
								"localhost"
							],
							"port": "5000",
							"path": [
								"ticket",
								"list",
								"Open"
							]
						}
					},
					"response": []
				},
				{
					"name": "Find tincket by Id",
					"request": {
						"method": "GET",
						"header": [],
						"url": {
							"raw": "localhost:5000\\ticket\\636d13cc61391a21b18cf70a",
							"host": [
								"localhost"
							],
							"port": "5000",
							"path": [
								"ticket",
								"636d13cc61391a21b18cf70a"
							]
						}
					},
					"response": []
				},
				{
					"name": "Update Ticket",
					"request": {
						"method": "PUT",
						"header": [],
						"body": {
							"mode": "raw",
							"raw": "{\r\n    \"ticketNumber\": \"1\",\r\n    \"mail\": \"nelsong.salazar@gmail.com\",\r\n    \"titule\": \"Error en la App SAP\",\r\n    \"category\": \"Core\",\r\n    \"status\": \"Close\",\r\n    \"replys\":  [\r\n                {\r\n                    \"mail\": \"soporte@gmail.com\",\r\n                    \"review\": \"Ya se restablecio el servicio\"\r\n                }\r\n              ]\r\n}",
							"options": {
								"raw": {
									"language": "json"
								}
							}
						},
						"url": {
							"raw": "localhost:5000\\ticket\\636d13cc61391a21b18cf70a",
							"host": [
								"localhost"
							],
							"port": "5000",
							"path": [
								"ticket",
								"636d13cc61391a21b18cf70a"
							]
						}
					},
					"response": []
				},
				{
					"name": "Eliminar Ticket",
					"request": {
						"method": "DELETE",
						"header": [],
						"url": {
							"raw": "localhost:5000\\ticket\\636d13cc61391a21b18cf70a",
							"host": [
								"localhost"
							],
							"port": "5000",
							"path": [
								"ticket",
								"636d13cc61391a21b18cf70a"
							]
						}
					},
					"response": []
				}
			]
		},
		{
			"name": "Authentication User",
			"item": [
				{
					"name": "Generate Token",
					"request": {
						"auth": {
							"type": "noauth"
						},
						"method": "POST",
						"header": [
							{
								"key": "",
								"value": "",
								"type": "text",
								"disabled": true
							}
						],
						"url": {
							"raw": "localhost:5000\\auth\\login",
							"host": [
								"localhost"
							],
							"port": "5000",
							"path": [
								"auth",
								"login"
							]
						}
					},
					"response": []
				},
				{
					"name": "Veryfy Token",
					"request": {
						"method": "POST",
						"header": [
							{
								"key": "Authorization",
								"value": "Bearer eyJhbGciOiJIUzI1NiJ9.QWRtaW4.xeTv1NXwSFFah0gkcTZM1-pA5P7rpxB1jAnGRl8Dsgs",
								"type": "text"
							}
						],
						"url": {
							"raw": "localhost:5000\\auth\\test",
							"host": [
								"localhost"
							],
							"port": "5000",
							"path": [
								"auth",
								"test"
							]
						}
					},
					"response": []
				}
			]
		}
	]
}